OCTO> select pastas.id, firstName, lastName, pastaName from names4
OCTO> inner join pastas on pastas.pastaName = names4.favoritePasta
OCTO> order by pastaName desc;
Added SET and/or Non-SET trigger on ^pastas named pastas#1
5|Lord|Nikon|Rotini
5|Zero|Day|Rotini
6|Cereal|Killer|Penne
9|Zero|Cool|Pappardelle
9|Joey||Pappardelle
7|Acid|House|Orechiette
8|Zero|Lame|Lasagna
1|Acid|Burn|Cavatelli
1|Bobby|Buttons|Cavatelli
1|Betty|Buttons|Cavatelli
OCTO> 
