OCTO> select distinct pastas.id, favoritePasta from names4
OCTO> inner join pastas on pastas.pastaName = names4.favoritePasta
OCTO> where names4.favoritePasta = "Cavatelli";
Added SET and/or Non-SET trigger on ^names4 named names4#1
Added SET and/or Non-SET trigger on ^pastas named pastas#1
1|Cavatelli
OCTO> 
