OCTO> SELECT first_name, last_name, order_date, order_amount
OCTO> FROM customers c
OCTO> LEFT JOIN orders o
OCTO> ON c.customer_id = o.customer_id;
Added SET and/or Non-SET trigger on ^orders named orders#1
George|Washington|07/04/1776|$234.56
John|Adams|05/23/1784|$124.00
Thomas|Jefferson|03/14/1760|$78.50
Thomas|Jefferson|09/03/1790|$65.50
James|Madison||
James|Monroe||
OCTO> 
