OCTO> drop table t1;
OCTO> select * from t1;
[ERROR] PATH:LINENUM DATE TIME : Unknown table: T1

select * from t1;
              ^^
[ERROR] PATH:LINENUM DATE TIME : Error parsing statement: select * from t1;

OCTO> 
