OCTO>   SELECT firstName FROM names WHERE firstName IN ('Zero', 'Acid', 'Cool');
Added SET and/or Non-SET trigger on ^names named names#1
Zero
Zero
Acid
OCTO> 
;; This is a generated file; do not modify. Generated M code corresponds to below SQL query
;; ---------------------------------------------------------
;    SELECT firstName FROM names WHERE firstName IN ('Zero', 'Acid', 'Cool');
;; ---------------------------------------------------------

octoPlan0(cursorId)
    DO octoPlan1(cursorId)
    DO octoPlan2(cursorId)
    DO octoPlan3(cursorId)
    QUIT

octoPlan1(cursorId)
    DO:'$DATA(^%ydboctoocto("xref_status","NAMES","FIRSTNAME")) ^%ydboctoXLr97yZplWXXGLtV9iCTG22(cursorId)
    NEW %ydboctoz KILL %ydboctocursor(cursorId,"keys",2,"","")
    SET %ydboctocursor(cursorId,"keys",0,"NAMES","FIRSTNAME")="Zero" IF ($DATA(^%ydboctoxref("NAMES","FIRSTNAME",%ydboctocursor(cursorId,"keys",0,"NAMES","FIRSTNAME")))'=0) DO
    . SET %ydboctocursor(cursorId,"keys",0,"NAMES","ID")=""
    . FOR  SET %ydboctocursor(cursorId,"keys",0,"NAMES","ID")=$ORDER(^%ydboctoxref("NAMES","FIRSTNAME",%ydboctocursor(cursorId,"keys",0,"NAMES","FIRSTNAME"),%ydboctocursor(cursorId,"keys",0,"NAMES","ID"))) QUIT:(%ydboctocursor(cursorId,"keys",0,"NAMES","ID")="")  DO
    . . IF 1&($DATA(%ydboctocursor(cursorId,"dupl",%ydboctocursor(cursorId,"keys",0,"NAMES","ID")))=0) DO
    . . . SET:1&$INCREMENT(%ydboctocursor(cursorId,"keys",2,"","")) %ydboctoz=42
    . . . SET:1 %ydboctocursor(cursorId,"keys",2,"","",%ydboctocursor(cursorId,"keys",2,"",""))=$GET(%ydboctocursor(cursorId,"keys",2,"","",%ydboctocursor(cursorId,"keys",2,"","")))_%ydboctocursor(cursorId,"keys",0,"NAMES","FIRSTNAME")
    . . . SET %ydboctocursor(cursorId,"dupl",%ydboctocursor(cursorId,"keys",0,"NAMES","ID"))=1
    . . . SET:1 %ydboctocursor(cursorId,"index",%ydboctocursor(cursorId,"keys",0,"NAMES","FIRSTNAME"),%ydboctocursor(cursorId,"keys",2,"",""))="",tmpVar=$INCREMENT(%ydboctocursor(cursorId,"index",%ydboctocursor(cursorId,"keys",0,"NAMES","FIRSTNAME")))
    QUIT

octoPlan2(cursorId)
    DO:'$DATA(^%ydboctoocto("xref_status","NAMES","FIRSTNAME")) ^%ydboctoXLr97yZplWXXGLtV9iCTG22(cursorId)
    NEW %ydboctoz
    SET %ydboctocursor(cursorId,"keys",0,"NAMES","FIRSTNAME")="Cool" IF ($DATA(^%ydboctoxref("NAMES","FIRSTNAME",%ydboctocursor(cursorId,"keys",0,"NAMES","FIRSTNAME")))'=0) DO
    . SET %ydboctocursor(cursorId,"keys",0,"NAMES","ID")=""
    . FOR  SET %ydboctocursor(cursorId,"keys",0,"NAMES","ID")=$ORDER(^%ydboctoxref("NAMES","FIRSTNAME",%ydboctocursor(cursorId,"keys",0,"NAMES","FIRSTNAME"),%ydboctocursor(cursorId,"keys",0,"NAMES","ID"))) QUIT:(%ydboctocursor(cursorId,"keys",0,"NAMES","ID")="")  DO
    . . IF 1&($DATA(%ydboctocursor(cursorId,"dupl",%ydboctocursor(cursorId,"keys",0,"NAMES","ID")))=0) DO
    . . . SET:1&$INCREMENT(%ydboctocursor(cursorId,"keys",2,"","")) %ydboctoz=42
    . . . SET:1 %ydboctocursor(cursorId,"keys",2,"","",%ydboctocursor(cursorId,"keys",2,"",""))=$GET(%ydboctocursor(cursorId,"keys",2,"","",%ydboctocursor(cursorId,"keys",2,"","")))_%ydboctocursor(cursorId,"keys",0,"NAMES","FIRSTNAME")
    . . . SET %ydboctocursor(cursorId,"dupl",%ydboctocursor(cursorId,"keys",0,"NAMES","ID"))=1
    . . . SET:1 %ydboctocursor(cursorId,"index",%ydboctocursor(cursorId,"keys",0,"NAMES","FIRSTNAME"),%ydboctocursor(cursorId,"keys",2,"",""))="",tmpVar=$INCREMENT(%ydboctocursor(cursorId,"index",%ydboctocursor(cursorId,"keys",0,"NAMES","FIRSTNAME")))
    QUIT

octoPlan3(cursorId)
    DO:'$DATA(^%ydboctoocto("xref_status","NAMES","FIRSTNAME")) ^%ydboctoXLr97yZplWXXGLtV9iCTG22(cursorId)
    NEW %ydboctoz
    SET %ydboctocursor(cursorId,"keys",0,"NAMES","FIRSTNAME")="Acid" IF ($DATA(^%ydboctoxref("NAMES","FIRSTNAME",%ydboctocursor(cursorId,"keys",0,"NAMES","FIRSTNAME")))'=0) DO
    . SET %ydboctocursor(cursorId,"keys",0,"NAMES","ID")=""
    . FOR  SET %ydboctocursor(cursorId,"keys",0,"NAMES","ID")=$ORDER(^%ydboctoxref("NAMES","FIRSTNAME",%ydboctocursor(cursorId,"keys",0,"NAMES","FIRSTNAME"),%ydboctocursor(cursorId,"keys",0,"NAMES","ID"))) QUIT:(%ydboctocursor(cursorId,"keys",0,"NAMES","ID")="")  DO
    . . IF 1&($DATA(%ydboctocursor(cursorId,"dupl",%ydboctocursor(cursorId,"keys",0,"NAMES","ID")))=0) DO
    . . . SET:1&$INCREMENT(%ydboctocursor(cursorId,"keys",2,"","")) %ydboctoz=42
    . . . SET:1 %ydboctocursor(cursorId,"keys",2,"","",%ydboctocursor(cursorId,"keys",2,"",""))=$GET(%ydboctocursor(cursorId,"keys",2,"","",%ydboctocursor(cursorId,"keys",2,"","")))_%ydboctocursor(cursorId,"keys",0,"NAMES","FIRSTNAME")
    . . . SET %ydboctocursor(cursorId,"dupl",%ydboctocursor(cursorId,"keys",0,"NAMES","ID"))=1
    . . . SET:1 %ydboctocursor(cursorId,"index",%ydboctocursor(cursorId,"keys",0,"NAMES","FIRSTNAME"),%ydboctocursor(cursorId,"keys",2,"",""))="",tmpVar=$INCREMENT(%ydboctocursor(cursorId,"index",%ydboctocursor(cursorId,"keys",0,"NAMES","FIRSTNAME")))
    QUIT
