OCTO> SELECT t1.firstName, t2.firstName, t3.firstName
OCTO> FROM names t1
OCTO> INNER JOIN names t2
OCTO> ON t1.id = t2.id
OCTO> INNER JOIN names t3
OCTO> ON t2.id = t3.id;
Zero|Zero|Zero
Acid|Acid|Acid
Cereal|Cereal|Cereal
Lord|Lord|Lord
Joey|Joey|Joey
Zero|Zero|Zero
OCTO> 
;; This is a generated file; do not modify. Generated M code corresponds to below SQL query
;; ---------------------------------------------------------
;  SELECT t1.firstName, t2.firstName, t3.firstName
;  FROM names t1
;  INNER JOIN names t2
;  ON t1.id = t2.id
;  INNER JOIN names t3
;  ON t2.id = t3.id;
;; ---------------------------------------------------------

octoPlan0(cursorId)
    DO octoPlan1(cursorId)
    QUIT

octoPlan1(cursorId)
    NEW %ydboctoz KILL %ydboctocursor(cursorId,"keys",4,"","")
    SET %ydboctocursor(cursorId,"keys",0,"NAMES","ID")=""
    FOR  SET %ydboctocursor(cursorId,"keys",0,"NAMES","ID")=$ORDER(^names(%ydboctocursor(cursorId,"keys",0,"NAMES","ID"))) QUIT:(%ydboctocursor(cursorId,"keys",0,"NAMES","ID")="")  DO
    . SET %ydboctocursor(cursorId,"keys",1,"NAMES","ID")=%ydboctocursor(cursorId,"keys",0,"NAMES","ID") IF ($DATA(^names(%ydboctocursor(cursorId,"keys",1,"NAMES","ID")))'=0) DO
    . . SET %ydboctocursor(cursorId,"keys",2,"NAMES","ID")=%ydboctocursor(cursorId,"keys",1,"NAMES","ID") IF ($DATA(^names(%ydboctocursor(cursorId,"keys",2,"NAMES","ID")))'=0) DO
    . . . IF 1 DO
    . . . . SET:1&$INCREMENT(%ydboctocursor(cursorId,"keys",4,"","")) %ydboctoz=42
    . . . . SET:1 %ydboctocursor(cursorId,"keys",4,"","",%ydboctocursor(cursorId,"keys",4,"",""))=$GET(%ydboctocursor(cursorId,"keys",4,"","",%ydboctocursor(cursorId,"keys",4,"","")))_$PIECE($GET(^names(%ydboctocursor(cursorId,"keys",0,"NAMES","ID"))),"|",2)_"|"_$PIECE($GET(^names(%ydboctocursor(cursorId,"keys",1,"NAMES","ID"))),"|",2)_"|"_$PIECE($GET(^names(%ydboctocursor(cursorId,"keys",2,"NAMES","ID"))),"|",2)
    QUIT
